{"content":[{"id":17007787,"testTitle":"test-1708","targetSite":"https://wikipedia.org","testType":"SITE","created":"2020-08-23T16:26:18.898237Z","startDate":"2020-08-23T16:26:20.706732","testerCount":39,"testerType":"UXCrowd","status":"ACTIVE","completedTestCount":0,"customer":{"id":493309903,"username":"mattjeevas","email":"matt.jeevas@mail.ru","city":null}},{"id":17007737,"testTitle":"test-9497","targetSite":"https://wikipedia.org","testType":"SITE","created":"2020-08-23T16:12:37.091652Z","startDate":"2020-08-23T16:12:38.902344","testerCount":16,"testerType":"UXCrowd","status":"ACTIVE","completedTestCount":0,"customer":{"id":493309903,"username":"mattjeevas","email":"matt.jeevas@mail.ru","city":null}},{"id":17007687,"testTitle":"test-6438","targetSite":"https://wikipedia.org","testType":"SITE","created":"2020-08-23T16:03:57.42401Z","startDate":"2020-08-23T16:03:59.256627","testerCount":41,"testerType":"UXCrowd","status":"ACTIVE","completedTestCount":0,"customer":{"id":493309903,"username":"mattjeevas","email":"matt.jeevas@mail.ru","city":null}},{"id":17007637,"testTitle":"test-9310","targetSite":"https://wikipedia.org","testType":"SITE","created":"2020-08-23T15:59:23.471105Z","startDate":"2020-08-23T15:59:25.364378","testerCount":49,"testerType":"UXCrowd","status":"ACTIVE","completedTestCount":0,"customer":{"id":493309903,"username":"mattjeevas","email":"matt.jeevas@mail.ru","city":null}},{"id":17007587,"testTitle":"test-3243","targetSite":"https://wikipedia.org","testType":"SITE","created":"2020-08-23T15:54:53.028576Z","startDate":"2020-08-23T15:54:54.837181","testerCount":48,"testerType":"UXCrowd","status":"ACTIVE","completedTestCount":0,"customer":{"id":493309903,"username":"mattjeevas","email":"matt.jeevas@mail.ru","city":null}},{"id":17007537,"testTitle":"test-3395","targetSite":"https://wikipedia.org","testType":"SITE","created":"2020-08-23T15:52:08.447625Z","startDate":"2020-08-23T15:52:10.267502","testerCount":19,"testerType":"UXCrowd","status":"ACTIVE","completedTestCount":0,"customer":{"id":493309903,"username":"mattjeevas","email":"matt.jeevas@mail.ru","city":null}},{"id":17007487,"testTitle":"test-3605","targetSite":"https://wikipedia.org","testType":"SITE","created":"2020-08-23T15:46:47.606165Z","startDate":"2020-08-23T15:46:49.784415","testerCount":15,"testerType":"UXCrowd","status":"ACTIVE","completedTestCount":0,"customer":{"id":493309903,"username":"mattjeevas","email":"matt.jeevas@mail.ru","city":null}},{"id":17007437,"testTitle":"test-2931","targetSite":"https://wikipedia.org","testType":"SITE","created":"2020-08-23T15:40:01.714471Z","startDate":"2020-08-23T15:40:04.204927","testerCount":29,"testerType":"UXCrowd","status":"ACTIVE","completedTestCount":0,"customer":{"id":493309903,"username":"mattjeevas","email":"matt.jeevas@mail.ru","city":null}},{"id":17007387,"testTitle":"test-5867","targetSite":"https://wikipedia.org","testType":"SITE","created":"2020-08-23T15:36:51.915107Z","startDate":"2020-08-23T15:36:54.472376","testerCount":15,"testerType":"UXCrowd","status":"ACTIVE","completedTestCount":0,"customer":{"id":493309903,"username":"mattjeevas","email":"matt.jeevas@mail.ru","city":null}},{"id":17007337,"testTitle":"test-7431","targetSite":"https://wikipedia.org","testType":"SITE","created":"2020-08-23T15:32:49.374548Z","startDate":"2020-08-23T15:32:51.866855","testerCount":34,"testerType":"UXCrowd","status":"ACTIVE","completedTestCount":0,"customer":{"id":493309903,"username":"mattjeevas","email":"matt.jeevas@mail.ru","city":null}}],"pageable":{"sort":{"sorted":true,"unsorted":false,"empty":false},"pageSize":10,"pageNumber":0,"offset":0,"paged":true,"unpaged":false},"totalPages":18,"totalElements":171,"last":false,"first":true,"sort":{"sorted":true,"unsorted":false,"empty":false},"number":0,"numberOfElements":10,"size":10,"empty":false}